{
  "name": "Baskara Putra",
  "birthPlaceDate": "Jakarta/ 01 Jan 1998",
  "address": "Jalan Pamulang No 123, RT 007/008, Lebak Bulus, Cilandak, Jakarta Selatan, DKI Jakarta, 12440",
  "email": "baskaraputra@gmail.com",
  "accountNo": "123456768",
  "bankName": "Bank Central Asia",
  "accountName": "Baskara Putra",
  "territories": "Worldwide"
}
